{
  "development": {
    "host": "notifications.takeaway.local",
    "version": "v1",
    "language": "en",
  },

  "staging": {
    "host": "example.com",
    "version": "v1",
    "language": "en"
  },

  "production": {
    "host": "example.com",
    "version": "v1",
    "language": "en"
  }
}